INDEX VERSION 1.131+C:\workspace\.metadata\.plugins\org.eclipse.jdt.core
3275401738.index
1451757006.index
137358399.index
362581275.index
2492604015.index
2989887397.index
2390272482.index
2729289398.index
1283001010.index
3529504909.index
3061361023.index
2538215463.index
3642817451.index
3802915190.index
725071176.index
1869321565.index
4285830987.index
3153157429.index
3030924039.index
1220308574.index
3146722222.index
3316796399.index
3657830836.index
3160352935.index
854492989.index
636016986.index
2613784189.index
1903937418.index
2762649813.index
2436303636.index
2119342886.index
582872082.index
2156748470.index
522560560.index
679502975.index
3442917172.index
3934841918.index
2239877629.index
3244853415.index
1223396850.index
2978330599.index
1344293225.index
3036496317.index
3109124533.index
47126971.index
1951666279.index
2436459610.index
4143823538.index
4213348864.index
3128612773.index
4114809061.index
1170349499.index
1828129455.index
607522861.index
3154830303.index
104924273.index
1830713899.index
1635282122.index
3227254342.index
2030198192.index
3905452833.index
3377718137.index
3859843351.index
2774992388.index
4257325822.index
2119250641.index
3193967898.index
2596662369.index
1854779957.index
1390682365.index
503605182.index
4107314142.index
3714433224.index
4208694859.index
2893462749.index
218580892.index
4023184685.index
691298101.index
1759651232.index
306780836.index
3910154978.index
2126209890.index
2668948516.index
3768048408.index
895071740.index
3527997388.index
362242403.index
4041290087.index
3226743480.index
3868244491.index
2125071999.index
648506100.index
369972029.index
4054038625.index
3052296564.index
2901360872.index
2678263604.index
3485522228.index
974186558.index
