<?xml version="1.0" encoding="UTF-8"?>
<session version="1.0">
<refactoring accessors="true" comment="Delete element from project &apos;SeleniumWithJunit&apos;&#x0D;&#x0A;- Original project: &apos;SeleniumWithJunit&apos;&#x0D;&#x0A;- Original element: &apos;build.xml&apos;" description="Delete element" element1="build.xml" elements="0" flags="589830" id="org.eclipse.jdt.ui.delete" resources="1" stamp="1527340122167" subPackages="false" version="1.0"/>
</session>